…
```r
titanic
```

```
# A tibble: 1,309 x 14
   pclass survived name  sex     age sibsp parch ticket  fare cabin embarked
    <dbl>    <dbl> <chr> <chr> <dbl> <dbl> <dbl> <chr>  <dbl> <chr> <chr>   
 1      1        1 Alle~ fema~ 29        0     0 24160  211.  B5    S       
 2      1        1 Alli~ male   0.92     1     2 113781 152.  C22 ~ S       
 3      1        0 Alli~ fema~  2        1     2 113781 152.  C22 ~ S       
 4      1        0 Alli~ male  30        1     2 113781 152.  C22 ~ S       
 5      1        0 Alli~ fema~ 25        1     2 113781 152.  C22 ~ S       
 6      1        1 Ande~ male  48        0     0 19952   26.6 E12   S       
 7      1        1 Andr~ fema~ 63        1     0 13502   78.0 D7    S       
 8      1        0 Andr~ male  39        0     0 112050   0   A36   S       
 9      1        1 Appl~ fema~ 53        2     0 11769   51.5 C101  S       
10      1        0 Arta~ male  71        0     0 PC 17~  49.5 <NA>  C       
# ... with 1,299 more rows, and 3 more variables: boat <chr>, body <dbl>,
#   home.dest <chr>
```
…
```r
# column type을 변경
titanic2 <- read_csv("dataset/titanic3.csv", 
                     col_types = "iicfdiicdcfcic")
titanic2
```

```
# A tibble: 1,309 x 14
   pclass survived name  sex     age sibsp parch ticket  fare cabin embarked
    <int>    <int> <chr> <fct> <dbl> <int> <int> <chr>  <dbl> <chr> <fct>   
 1      1        1 Alle~ fema~ 29        0     0 24160  211.  B5    S       
 2      1        1 Alli~ male   0.92     1     2 113781 152.  C22 ~ S       
 3      1        0 Alli~ fema~  2        1     2 113781 152.  C22 ~ S       
 4      1        0 Alli~ male  30        1     2 113781 152.  C22 ~ S       
 5      1        0 Alli~ fema~ 25        1     2 113781 152.  C22 ~ S       
 6      1        1 Ande~ male  48        0     0 19952   26.6 E12   S       
 7      1        1 Andr~ fema~ 63        1     0 13502   78.0 D7    S       
 8      1        0 Andr~ male  39        0     0 112050   0   A36   S       
 9      1        1 Appl~ fema~ 53        2     0 11769   51.5 C101  S       
10      1        0 Arta~ male  71        0     0 PC 17~  49.5 <NA>  C       
# ... with 1,299 more rows, and 3 more variables: boat <chr>, body <int>,
#   home.dest <chr>
```

```r
# 특정 변수만 불러오기
titanic3 <- read_csv("dataset/titanic3.csv", 
                     col_types = cols_only(
                       pclass = col_integer(), 
                       survived = col_integer(), 
                       sex = col_factor(), 
                       age = col_double()
                     ))
titanic3
```

```
# A tibble: 1,309 x 4
   pclass survived sex      age
    <int>    <int> <fct>  <dbl>
 1      1        1 female 29   
 2      1        1 male    0.92
 3      1        0 female  2   
 4      1        0 male   30   
 5      1        0 female 25   
 6      1        1 male   48   
 7      1        1 female 63   
 8      1        0 male   39   
 9      1        1 female 53   
10      1        0 male   71   
# ... with 1,299 more rows
```
…
```
필요한 패키지를 로딩중입니다: readxl
```

```r
covid19 <- read_xlsx("dataset/covid-19-dataset/owid-covid-data.xlsx")
covid19
```

```
# A tibble: 14,315 x 16
   iso_code location date  total_cases new_cases total_deaths new_deaths
   <chr>    <chr>    <chr>       <dbl>     <dbl>        <dbl>      <dbl>
 1 ABW      Aruba    2020~           2         2            0          0
 2 ABW      Aruba    2020~           4         2            0          0
 3 ABW      Aruba    2020~          12         8            0          0
 4 ABW      Aruba    2020~          17         5            0          0
 5 ABW      Aruba    2020~          19         2            0          0
 6 ABW      Aruba    2020~          28         9            0          0
 7 ABW      Aruba    2020~          28         0            0          0
 8 ABW      Aruba    2020~          28         0            0          0
 9 ABW      Aruba    2020~          50        22            0          0
10 ABW      Aruba    2020~          55         5            0          0
# ... with 14,305 more rows, and 9 more variables:
#   total_cases_per_million <dbl>, new_cases_per_million <dbl>,
#   total_deaths_per_million <dbl>, new_deaths_per_million <dbl>,
#   total_tests <dbl>, new_tests <dbl>, total_tests_per_thousand <dbl>,
#   new_tests_per_thousand <dbl>, tests_units <chr>
```
…
```r
as_tibble(iris)
```

```
# A tibble: 150 x 5
   Sepal.Length Sepal.Width Petal.Length Petal.Width Species
          <dbl>       <dbl>        <dbl>       <dbl> <fct>  
 1          5.1         3.5          1.4         0.2 setosa 
 2          4.9         3            1.4         0.2 setosa 
 3          4.7         3.2          1.3         0.2 setosa 
 4          4.6         3.1          1.5         0.2 setosa 
 5          5           3.6          1.4         0.2 setosa 
 6          5.4         3.9          1.7         0.4 setosa 
 7          4.6         3.4          1.4         0.3 setosa 
 8          5           3.4          1.5         0.2 setosa 
 9          4.4         2.9          1.4         0.2 setosa 
10          4.9         3.1          1.5         0.1 setosa 
# ... with 140 more rows
```
…
- 개별 벡터로부터 tibble 생성 가능
- 방금 생성한 변수 참조 가능
- 문자형 변수가 입력된 경우 데이터 프레임과 다르게 별다른 옵션이 없어도 강제로 factor로 형 변환을 하지 않음

\footnotesize


```r
# 벡터로부터 tibble 객체 생성
tibble(x = letters, y = rnorm(26), z = y^2)
```

```
# A tibble: 26 x 3
   x           y       z
   <chr>   <dbl>   <dbl>
 1 a     -0.0338 0.00114
 2 b     -1.03   1.06   
 3 c      0.356  0.126  
 4 d      0.277  0.0765 
 5 e      0.154  0.0238 
 6 f     -0.697  0.486  
 7 g      0.926  0.858  
 8 h      1.04   1.09   
 9 i      0.671  0.450  
10 j     -1.76   3.09   
# ... with 16 more rows
```
…
```r
dd <- as_tibble(iris)
dd
```

```
# A tibble: 150 x 5
   Sepal.Length Sepal.Width Petal.Length Petal.Width Species
          <dbl>       <dbl>        <dbl>       <dbl> <fct>  
 1          5.1         3.5          1.4         0.2 setosa 
 2          4.9         3            1.4         0.2 setosa 
 3          4.7         3.2          1.3         0.2 setosa 
 4          4.6         3.1          1.5         0.2 setosa 
 5          5           3.6          1.4         0.2 setosa 
 6          5.4         3.9          1.7         0.4 setosa 
 7          4.6         3.4          1.4         0.3 setosa 
 8          5           3.4          1.5         0.2 setosa 
 9          4.4         2.9          1.4         0.2 setosa 
10          4.9         3.1          1.5         0.1 setosa 
# ... with 140 more rows
```
…
```r
# 시내 연비를 기준으로 오름차순 정렬
## R 기본 문법 사용
# mpg[order(mpg$cty), ]

## arrange 함수 사용
# arrange(mpg, cty)

## pipe 사용
mpg_asc <- mpg %>% arrange(cty)
mpg_asc %>% print
```

```
# A tibble: 234 x 11
   manufacturer model     displ  year   cyl trans  drv     cty   hwy fl    class
   <chr>        <chr>     <dbl> <int> <int> <chr>  <chr> <int> <int> <chr> <chr>
 1 dodge        dakota p~   4.7  2008     8 auto(~ 4         9    12 e     pick~
 2 dodge        durango ~   4.7  2008     8 auto(~ 4         9    12 e     suv  
 3 dodge        ram 1500~   4.7  2008     8 auto(~ 4         9    12 e     pick~
 4 dodge        ram 1500~   4.7  2008     8 manua~ 4         9    12 e     pick~
 5 jeep         grand ch~   4.7  2008     8 auto(~ 4         9    12 e     suv  
 6 chevrolet    c1500 su~   5.3  2008     8 auto(~ r        11    15 e     suv  
 7 chevrolet    k1500 ta~   5.3  2008     8 auto(~ 4        11    14 e     suv  
 8 chevrolet    k1500 ta~   5.7  1999     8 auto(~ 4        11    15 r     suv  
 9 dodge        caravan ~   3.3  2008     6 auto(~ f        11    17 e     mini~
10 dodge        dakota p~   5.2  1999     8 manua~ 4        11    17 r     pick~
# ... with 224 more rows
```

```r
# 시내 연비는 오름차순, 차량 타입은 내림차순(알파벳 역순) 정렬
## R 기본 문법 사용
### 문자형 벡터의 순위 계산을 위해 rank() 함수 사용
mpg_sortb <- mpg[order(mpg$cty, -rank(mpg$class)), ]

## arrange 함수 사용
mpg_sortt <- mpg %>% arrange(cty, desc(class))
mpg_sortt %>% print
```

```
# A tibble: 234 x 11
   manufacturer model     displ  year   cyl trans  drv     cty   hwy fl    class
   <chr>        <chr>     <dbl> <int> <int> <chr>  <chr> <int> <int> <chr> <chr>
 1 dodge        durango ~   4.7  2008     8 auto(~ 4         9    12 e     suv  
 2 jeep         grand ch~   4.7  2008     8 auto(~ 4         9    12 e     suv  
 3 dodge        dakota p~   4.7  2008     8 auto(~ 4         9    12 e     pick~
 4 dodge        ram 1500~   4.7  2008     8 auto(~ 4         9    12 e     pick~
 5 dodge        ram 1500~   4.7  2008     8 manua~ 4         9    12 e     pick~
 6 chevrolet    c1500 su~   5.3  2008     8 auto(~ r        11    15 e     suv  
 7 chevrolet    k1500 ta~   5.3  2008     8 auto(~ 4        11    14 e     suv  
 8 chevrolet    k1500 ta~   5.7  1999     8 auto(~ 4        11    15 r     suv  
 9 dodge        durango ~   5.2  1999     8 auto(~ 4        11    16 r     suv  
10 dodge        durango ~   5.9  1999     8 auto(~ 4        11    15 r     suv  
# ... with 224 more rows
```
…
\footnotesize


```r
`연비` <- mpg %>% 
  transmute(cty_kpl = cty*kpl, 
            hwy_kpl = hwy*kpl, 
            cty_raw = cty_kpl/kpl,
            hwy_raw = hwy_kpl/kpl)
`연비` %>% print
```

```
# A tibble: 234 x 4
   cty_kpl hwy_kpl cty_raw hwy_raw
     <dbl>   <dbl>   <dbl>   <dbl>
 1    7.65    12.3      18     29 
 2    8.92    12.3      21     29 
 3    8.50    13.2      20     31.
 4    8.92    12.7      21     30 
 5    6.80    11.0      16     26 
 6    7.65    11.0      18     26 
 7    7.65    11.5      18     27 
 8    7.65    11.0      18     26 
 9    6.80    10.6      16     25 
10    8.50    11.9      20     28 
# ... with 224 more rows
```
…
```r
## 통계량 계산
by_mpg %>% 
  summarise(mean_cty = mean(cty), 
            mean_hwy = mean(hwy)) %>% 
  print
```

```
`summarise()` regrouping output by 'model' (override with `.groups` argument)
```

```
# A tibble: 76 x 4
# Groups:   model [38]
   model        year mean_cty mean_hwy
   <chr>       <int>    <dbl>    <dbl>
 1 4runner 4wd  1999     15.2     19  
 2 4runner 4wd  2008     15       18.5
 3 a4           1999     18.2     27.5
 4 a4           2008     19.7     29.3
 5 a4 quattro   1999     16.5     25.2
 6 a4 quattro   2008     17.8     26.2
 7 a6 quattro   1999     15       24  
 8 a6 quattro   2008     16.5     24  
 9 altima       1999     20       28  
10 altima       2008     21       29  
# ... with 66 more rows
```
…
```r
# 각 모델 별 첫 번째 데이터만 추출
slice_mpg_grp <- mpg %>% 
  group_by(model) %>% 
  slice(1) %>% 
  arrange(model)

slice_mpg_grp %>% print
```

```
# A tibble: 38 x 11
# Groups:   model [38]
   manufacturer model    displ  year   cyl trans  drv     cty   hwy fl    class 
   <chr>        <chr>    <dbl> <int> <int> <chr>  <chr> <int> <int> <chr> <chr> 
 1 toyota       4runner~   2.7  1999     4 manua~ 4        15    20 r     suv   
 2 audi         a4         1.8  1999     4 auto(~ f        18    29 p     compa~
 3 audi         a4 quat~   1.8  1999     4 manua~ 4        18    26 p     compa~
 4 audi         a6 quat~   2.8  1999     6 auto(~ 4        15    24 p     midsi~
 5 nissan       altima     2.4  1999     4 manua~ f        21    29 r     compa~
 6 chevrolet    c1500 s~   5.3  2008     8 auto(~ r        14    20 r     suv   
 7 toyota       camry      2.2  1999     4 manua~ f        21    29 r     midsi~
 8 toyota       camry s~   2.2  1999     4 auto(~ f        21    27 r     compa~
 9 dodge        caravan~   2.4  1999     4 auto(~ f        18    24 r     miniv~
10 honda        civic      1.6  1999     4 manua~ f        28    33 r     subco~
# ... with 28 more rows
```
…
> **행(row, case, observation) 조작 동사: 선택한 변수를 기준으로 중복 없는 유일한(unique)한 행 추출 시 사용**

- R base 패키지의 `unique()` 또는 `unqiue.data.frame()`과 유사하게 작동하지만 처리 속도 면에서 뛰어남

\footnotesize


```r
# mpg 데이터에서 중복데이터 제거 (모든 열 기준)
mpg_uniq <- mpg %>% distinct()
mpg_uniq %>% print
```

```
# A tibble: 225 x 11
   manufacturer model    displ  year   cyl trans   drv     cty   hwy fl    class
   <chr>        <chr>    <dbl> <int> <int> <chr>   <chr> <int> <int> <chr> <chr>
 1 audi         a4         1.8  1999     4 auto(l~ f        18    29 p     comp~
 2 audi         a4         1.8  1999     4 manual~ f        21    29 p     comp~
 3 audi         a4         2    2008     4 manual~ f        20    31 p     comp~
 4 audi         a4         2    2008     4 auto(a~ f        21    30 p     comp~
 5 audi         a4         2.8  1999     6 auto(l~ f        16    26 p     comp~
 6 audi         a4         2.8  1999     6 manual~ f        18    26 p     comp~
 7 audi         a4         3.1  2008     6 auto(a~ f        18    27 p     comp~
 8 audi         a4 quat~   1.8  1999     4 manual~ 4        18    26 p     comp~
 9 audi         a4 quat~   1.8  1999     4 auto(l~ 4        16    25 p     comp~
10 audi         a4 quat~   2    2008     4 manual~ 4        20    28 p     comp~
# ... with 215 more rows
```
…
```r
## cty를 city_mpg, hwy를 hw_mpg로 변경
mpg %>% 
  rename(city_mpg = cty, 
         hw_mpg = hwy) %>% 
  print
```

```
# A tibble: 234 x 11
   manufacturer model  displ  year   cyl trans drv   city_mpg hw_mpg fl    class
   <chr>        <chr>  <dbl> <int> <int> <chr> <chr>    <int>  <int> <chr> <chr>
 1 audi         a4       1.8  1999     4 auto~ f           18     29 p     comp~
 2 audi         a4       1.8  1999     4 manu~ f           21     29 p     comp~
 3 audi         a4       2    2008     4 manu~ f           20     31 p     comp~
 4 audi         a4       2    2008     4 auto~ f           21     30 p     comp~
 5 audi         a4       2.8  1999     6 auto~ f           16     26 p     comp~
 6 audi         a4       2.8  1999     6 manu~ f           18     26 p     comp~
 7 audi         a4       3.1  2008     6 auto~ f           18     27 p     comp~
 8 audi         a4 qu~   1.8  1999     4 manu~ 4           18     26 p     comp~
 9 audi         a4 qu~   1.8  1999     4 auto~ 4           16     25 p     comp~
10 audi         a4 qu~   2    2008     4 manu~ 4           20     28 p     comp~
# ... with 224 more rows
```
…
```r
# 제조사, 년도별 데이터 개수 
mpg %>% 
  group_by(manufacturer, year) %>% 
  tally %>% 
  ungroup %>% 
  print
```

```
# A tibble: 30 x 3
   manufacturer  year     n
   <chr>        <int> <int>
 1 audi          1999     9
 2 audi          2008     9
 3 chevrolet     1999     7
 4 chevrolet     2008    12
 5 dodge         1999    16
 6 dodge         2008    21
 7 ford          1999    15
 8 ford          2008    10
 9 honda         1999     5
10 honda         2008     4
# ... with 20 more rows
```
…
- `tally()` 함수와 유사하나 개수 집계 전 `group_by()`와 집계 후 `ungroup()`을 실행

\footnotesize


```r
# 제조사, 년도별 데이터 개수: tally() 예시와 비교
mpg %>% 
  count(manufacturer, year) %>% 
  print
```

```
# A tibble: 30 x 3
   manufacturer  year     n
   <chr>        <int> <int>
 1 audi          1999     9
 2 audi          2008     9
 3 chevrolet     1999     7
 4 chevrolet     2008    12
 5 dodge         1999    16
 6 dodge         2008    21
 7 ford          1999    15
 8 ford          2008    10
 9 honda         1999     5
10 honda         2008     4
# ... with 20 more rows
```
…
```
`summarise()` regrouping output by 'manufacturer' (override with `.groups` argument)
```

```
# A tibble: 30 x 5
# Groups:   manufacturer [15]
   manufacturer  year     N mean_displ mean_hwy
   <chr>        <int> <int>      <dbl>    <dbl>
 1 audi          1999     9       2.36     17.1
 2 audi          2008     9       2.73     18.1
 3 chevrolet     1999     7       4.97     15.1
 4 chevrolet     2008    12       5.12     14.9
 5 dodge         1999    16       4.32     13.4
 6 dodge         2008    21       4.42     13.0
 7 ford          1999    15       4.45     13.9
 8 ford          2008    10       4.66     14.1
 9 honda         1999     5       1.6      24.8
10 honda         2008     4       1.85     24  
# ... with 20 more rows
```
…
> 변수 선택과 변수명 변경을 동시에 수행

\footnotesize


```r
# select_all() 예시
## mpg 데이터셋의 모든 변수명을 대문자로 변경
mpg %>% 
  select_all(~toupper(.)) %>% 
  print
```

```
# A tibble: 234 x 11
   MANUFACTURER MODEL    DISPL  YEAR   CYL TRANS   DRV     CTY   HWY FL    CLASS
   <chr>        <chr>    <dbl> <int> <int> <chr>   <chr> <int> <int> <chr> <chr>
 1 audi         a4         1.8  1999     4 auto(l~ f        18    29 p     comp~
 2 audi         a4         1.8  1999     4 manual~ f        21    29 p     comp~
 3 audi         a4         2    2008     4 manual~ f        20    31 p     comp~
 4 audi         a4         2    2008     4 auto(a~ f        21    30 p     comp~
 5 audi         a4         2.8  1999     6 auto(l~ f        16    26 p     comp~
 6 audi         a4         2.8  1999     6 manual~ f        18    26 p     comp~
 7 audi         a4         3.1  2008     6 auto(a~ f        18    27 p     comp~
 8 audi         a4 quat~   1.8  1999     4 manual~ 4        18    26 p     comp~
 9 audi         a4 quat~   1.8  1999     4 auto(l~ 4        16    25 p     comp~
10 audi         a4 quat~   2    2008     4 manual~ 4        20    28 p     comp~
# ... with 224 more rows
```

```r
# select_if() 예시
## 문자형 변수를 선택하고 선택한 변수의 이름을 대문자로 변경
mpg %>% 
  select_if(~ is.character(.), ~ toupper(.)) %>% 
  print
```

```
# A tibble: 234 x 6
   MANUFACTURER MODEL      TRANS      DRV   FL    CLASS  
   <chr>        <chr>      <chr>      <chr> <chr> <chr>  
 1 audi         a4         auto(l5)   f     p     compact
 2 audi         a4         manual(m5) f     p     compact
 3 audi         a4         manual(m6) f     p     compact
 4 audi         a4         auto(av)   f     p     compact
 5 audi         a4         auto(l5)   f     p     compact
 6 audi         a4         manual(m5) f     p     compact
 7 audi         a4         auto(av)   f     p     compact
 8 audi         a4 quattro manual(m5) 4     p     compact
 9 audi         a4 quattro auto(l5)   4     p     compact
10 audi         a4 quattro manual(m6) 4     p     compact
# ... with 224 more rows
```

```r
# select_at() 예시
## model에서 cty 까지 변수를 선택하고 선택한 변수명을 대문자로 변경
mpg %>% 
  select_at(vars(model:cty), ~ toupper(.)) %>% 
  print
```

```
# A tibble: 234 x 7
   MODEL      DISPL  YEAR   CYL TRANS      DRV     CTY
   <chr>      <dbl> <int> <int> <chr>      <chr> <int>
 1 a4           1.8  1999     4 auto(l5)   f        18
 2 a4           1.8  1999     4 manual(m5) f        21
 3 a4           2    2008     4 manual(m6) f        20
 4 a4           2    2008     4 auto(av)   f        21
 5 a4           2.8  1999     6 auto(l5)   f        16
 6 a4           2.8  1999     6 manual(m5) f        18
 7 a4           3.1  2008     6 auto(av)   f        18
 8 a4 quattro   1.8  1999     4 manual(m5) 4        18
 9 a4 quattro   1.8  1999     4 auto(l5)   4        16
10 a4 quattro   2    2008     4 manual(m6) 4        20
# ... with 224 more rows
```
…
