4.5 데이터 변환 | 통계 프로그래밍 언어
…
long format: 데이터가 적은 수의 열로 이루어지며, 각 열 보통 행의 unique한 정보를 표현하기 위한 ID(또는 key)로 구성되어 있고 보통은 관측된 변수에 대한 한 개의 열로 구성된 데이터 형태

wide format: 통계학에서 다루는 데이터 구조와 동일한 개념으로 한 관측 단위(사람, 가구 등)가 한 행을 이루고, 관측 단위에 대한 측정값(예: 키, 몸무게, 성별)들이 변수(열)로 표현된 데이터 형태

                   mpg cyl disp  hp drat    wt  qsec vs am gear carb
Mazda RX4         21.0   6  160 110 3.90 2.620 16.46  0  1    4    4
Mazda RX4 Wag     21.0   6  160 110 3.90 2.875 17.02  0  1    4    4
Datsun 710        22.8   4  108  93 3.85 2.320 18.61  1  1    4    1
Hornet 4 Drive    21.4   6  258 110 3.08 3.215 19.44  1  0    3    1
Hornet Sportabout 18.7   8  360 175 3.15 3.440 17.02  0  0    3    2
Valiant           18.1   6  225 105 2.76 3.460 20.22  1  0    3    1

# A tibble: 352 x 3
   model       variable  value
   <chr>       <chr>     <dbl>
 1 AMC Javelin mpg       15.2 
 2 AMC Javelin cyl        8   
 3 AMC Javelin disp     304   
 4 AMC Javelin hp       150   
 5 AMC Javelin drat       3.15
 6 AMC Javelin wt         3.44
 7 AMC Javelin qsec      17.3 
 8 AMC Javelin vs         0   
 9 AMC Javelin am         0   
10 AMC Javelin gear       3   
# ... with 342 more rows
…
각 변수에 해당하는 값(value)은 하나의 셀에 위치

\(\rightarrow\) tidy data 원칙 만족

예시 1: wide_01 데이터셋

# wide_01 데이터 tidying
## pivot_wider() 사용
tidy_ex_01 <- wide_01 %>%
  pivot_longer(`2001`:`2020`,
               names_to = "year",
               values_to = "gdp_cap")
tidy_ex_01 %>% print

# A tibble: 60 x 3
   country year  gdp_cap
   <chr>   <chr>   <dbl>
 1 Germany 2001   37325.
 2 Germany 2002   37262.
 3 Germany 2003   36977.
 4 Germany 2004   37418.
 5 Germany 2005   37704.
 6 Germany 2006   39143.
 7 Germany 2007   40474.
 8 Germany 2008   40989.
 9 Germany 2009   38784.
10 Germany 2010   40429.
# ... with 50 more rows

## gather() 사용
tidy_ex_01 <- wide_01 %>%
  gather(year, gdp_cap, `2001`:`2020`)
tidy_ex_01 %>% print

# A tibble: 60 x 3
   country       year  gdp_cap
   <chr>         <chr>   <dbl>
 1 Germany       2001   37325.
 2 South Korea   2001   21530.
 3 United States 2001   45663.
 4 Germany       2002   37262.
 5 South Korea   2002   22997.
 6 United States 2002   46029.
 7 Germany       2003   36977.
 8 South Korea   2003   23549.
 9 United States 2003   46941.
10 Germany       2004   37418.
# ... with 50 more rows

예시 2: tidyr 패키지에 내장되어 있는 billboard 데이터셋(help(billboard) 참고)

billboard %>% print

# A tibble: 317 x 79
   artist track date.entered   wk1   wk2   wk3   wk4   wk5   wk6   wk7   wk8
   <chr>  <chr> <date>       <dbl> <dbl> <dbl> <dbl> <dbl> <dbl> <dbl> <dbl>
 1 2 Pac  Baby~ 2000-02-26      87    82    72    77    87    94    99    NA
 2 2Ge+h~ The ~ 2000-09-02      91    87    92    NA    NA    NA    NA    NA
 3 3 Doo~ Kryp~ 2000-04-08      81    70    68    67    66    57    54    53
 4 3 Doo~ Loser 2000-10-21      76    76    72    69    67    65    55    59
 5 504 B~ Wobb~ 2000-04-15      57    34    25    17    17    31    36    49
 6 98^0   Give~ 2000-08-19      51    39    34    26    26    19     2     2
 7 A*Tee~ Danc~ 2000-07-08      97    97    96    95   100    NA    NA    NA
 8 Aaliy~ I Do~ 2000-01-29      84    62    51    41    38    35    35    38
 9 Aaliy~ Try ~ 2000-03-18      59    53    38    28    21    18    16    14
10 Adams~ Open~ 2000-08-26      76    76    74    69    68    67    61    58
# ... with 307 more rows, and 68 more variables: wk9 <dbl>, wk10 <dbl>,
#   wk11 <dbl>, wk12 <dbl>, wk13 <dbl>, wk14 <dbl>, wk15 <dbl>, wk16 <dbl>,
#   wk17 <dbl>, wk18 <dbl>, wk19 <dbl>, wk20 <dbl>, wk21 <dbl>, wk22 <dbl>,
#   wk23 <dbl>, wk24 <dbl>, wk25 <dbl>, wk26 <dbl>, wk27 <dbl>, wk28 <dbl>,
#   wk29 <dbl>, wk30 <dbl>, wk31 <dbl>, wk32 <dbl>, wk33 <dbl>, wk34 <dbl>,
#   wk35 <dbl>, wk36 <dbl>, wk37 <dbl>, wk38 <dbl>, wk39 <dbl>, wk40 <dbl>,
#   wk41 <dbl>, wk42 <dbl>, wk43 <dbl>, wk44 <dbl>, wk45 <dbl>, wk46 <dbl>,
#   wk47 <dbl>, wk48 <dbl>, wk49 <dbl>, wk50 <dbl>, wk51 <dbl>, wk52 <dbl>,
#   wk53 <dbl>, wk54 <dbl>, wk55 <dbl>, wk56 <dbl>, wk57 <dbl>, wk58 <dbl>,
…
# pivot_wider()을 이용해 데이터 정돈
billb_tidy <- billboard %>%
  pivot_longer(starts_with("wk"),
               names_to = "week",
               values_to = "rank")
billb_tidy %>% print

# A tibble: 24,092 x 5
   artist track                   date.entered week   rank
   <chr>  <chr>                   <date>       <chr> <dbl>
 1 2 Pac  Baby Don't Cry (Keep... 2000-02-26   wk1      87
 2 2 Pac  Baby Don't Cry (Keep... 2000-02-26   wk2      82
 3 2 Pac  Baby Don't Cry (Keep... 2000-02-26   wk3      72
 4 2 Pac  Baby Don't Cry (Keep... 2000-02-26   wk4      77
 5 2 Pac  Baby Don't Cry (Keep... 2000-02-26   wk5      87
 6 2 Pac  Baby Don't Cry (Keep... 2000-02-26   wk6      94
 7 2 Pac  Baby Don't Cry (Keep... 2000-02-26   wk7      99
 8 2 Pac  Baby Don't Cry (Keep... 2000-02-26   wk8      NA
 9 2 Pac  Baby Don't Cry (Keep... 2000-02-26   wk9      NA
10 2 Pac  Baby Don't Cry (Keep... 2000-02-26   wk10     NA
# ... with 24,082 more rows

# pivot_longer() 함수의 인수 중 value_drop_na 값 조정을 통해
# 데이터 값에 포함된 결측 제거 가능
billb_tidy <- billboard %>%
  pivot_longer(starts_with("wk"),
               names_to = "week",
               values_to = "rank",
               values_drop_na = TRUE)
billb_tidy %>% print

# A tibble: 5,307 x 5
   artist  track                   date.entered week   rank
   <chr>   <chr>                   <date>       <chr> <dbl>
 1 2 Pac   Baby Don't Cry (Keep... 2000-02-26   wk1      87
 2 2 Pac   Baby Don't Cry (Keep... 2000-02-26   wk2      82
 3 2 Pac   Baby Don't Cry (Keep... 2000-02-26   wk3      72
 4 2 Pac   Baby Don't Cry (Keep... 2000-02-26   wk4      77
 5 2 Pac   Baby Don't Cry (Keep... 2000-02-26   wk5      87
 6 2 Pac   Baby Don't Cry (Keep... 2000-02-26   wk6      94
 7 2 Pac   Baby Don't Cry (Keep... 2000-02-26   wk7      99
 8 2Ge+her The Hardest Part Of ... 2000-09-02   wk1      91
 9 2Ge+her The Hardest Part Of ... 2000-09-02   wk2      87
10 2Ge+her The Hardest Part Of ... 2000-09-02   wk3      92
# ... with 5,297 more rows

# pivot_longer() 함수의 인수 중 names_prefix 인수 값 설정을 통해
# 변수명에 처음에 붙는 접두어(예: V, wk 등) 제거 가능
billb_tidy <- billboard %>%
  pivot_longer(starts_with("wk"),
               names_to = "week",
               values_to = "rank",
               names_prefix = "wk",
               values_drop_na = TRUE)
billb_tidy %>% print

# A tibble: 5,307 x 5
   artist  track                   date.entered week   rank
   <chr>   <chr>                   <date>       <chr> <dbl>
 1 2 Pac   Baby Don't Cry (Keep... 2000-02-26   1        87
 2 2 Pac   Baby Don't Cry (Keep... 2000-02-26   2        82
 3 2 Pac   Baby Don't Cry (Keep... 2000-02-26   3        72
 4 2 Pac   Baby Don't Cry (Keep... 2000-02-26   4        77
 5 2 Pac   Baby Don't Cry (Keep... 2000-02-26   5        87
 6 2 Pac   Baby Don't Cry (Keep... 2000-02-26   6        94
 7 2 Pac   Baby Don't Cry (Keep... 2000-02-26   7        99
 8 2Ge+her The Hardest Part Of ... 2000-09-02   1        91
 9 2Ge+her The Hardest Part Of ... 2000-09-02   2        87
10 2Ge+her The Hardest Part Of ... 2000-09-02   3        92
# ... with 5,297 more rows

# pivot_longer() 함수의 인수 중 names_ptypes 또는 values_ptypes 인수 값 설정을 통해
# 새로 생성한 변수(name과 value 에 해당하는)의 데이터 타입 변경 가능
billb_tidy <- billboard %>%
  pivot_longer(starts_with("wk"),
               names_to = "week",
               values_to = "rank",
               names_prefix = "wk",
               names_transform = list(week = as.integer),
               values_drop_na = TRUE)
billb_tidy %>% print

# A tibble: 5,307 x 5
   artist  track                   date.entered  week  rank
   <chr>   <chr>                   <date>       <int> <dbl>
 1 2 Pac   Baby Don't Cry (Keep... 2000-02-26       1    87
 2 2 Pac   Baby Don't Cry (Keep... 2000-02-26       2    82
 3 2 Pac   Baby Don't Cry (Keep... 2000-02-26       3    72
 4 2 Pac   Baby Don't Cry (Keep... 2000-02-26       4    77
 5 2 Pac   Baby Don't Cry (Keep... 2000-02-26       5    87
 6 2 Pac   Baby Don't Cry (Keep... 2000-02-26       6    94
 7 2 Pac   Baby Don't Cry (Keep... 2000-02-26       7    99
 8 2Ge+her The Hardest Part Of ... 2000-09-02       1    91
 9 2Ge+her The Hardest Part Of ... 2000-09-02       2    87
10 2Ge+her The Hardest Part Of ... 2000-09-02       3    92
# ... with 5,297 more rows

# 연습: wide_01 데이터에서 year을 정수형으로 변환(mutate 함수 사용하지 않고)

두 개 이상의 변수에 해당하는 값이 하나의 열에 저장

예시 데이터: tidyr 패키지에 내장되어 있는 who 데이터셋(help(who)를 통해 데이터 설명 참고)

# A tibble: 7,240 x 60
   country iso2  iso3   year new_sp_m014 new_sp_m1524 new_sp_m2534 new_sp_m3544
   <chr>   <chr> <chr> <int>       <int>        <int>        <int>        <int>
 1 Afghan~ AF    AFG    1980          NA           NA           NA           NA
 2 Afghan~ AF    AFG    1981          NA           NA           NA           NA
 3 Afghan~ AF    AFG    1982          NA           NA           NA           NA
 4 Afghan~ AF    AFG    1983          NA           NA           NA           NA
 5 Afghan~ AF    AFG    1984          NA           NA           NA           NA
 6 Afghan~ AF    AFG    1985          NA           NA           NA           NA
 7 Afghan~ AF    AFG    1986          NA           NA           NA           NA
 8 Afghan~ AF    AFG    1987          NA           NA           NA           NA
 9 Afghan~ AF    AFG    1988          NA           NA           NA           NA
10 Afghan~ AF    AFG    1989          NA           NA           NA           NA
# ... with 7,230 more rows, and 52 more variables: new_sp_m4554 <int>,
#   new_sp_m5564 <int>, new_sp_m65 <int>, new_sp_f014 <int>,
#   new_sp_f1524 <int>, new_sp_f2534 <int>, new_sp_f3544 <int>,
#   new_sp_f4554 <int>, new_sp_f5564 <int>, new_sp_f65 <int>,
#   new_sn_m014 <int>, new_sn_m1524 <int>, new_sn_m2534 <int>,
#   new_sn_m3544 <int>, new_sn_m4554 <int>, new_sn_m5564 <int>,
#   new_sn_m65 <int>, new_sn_f014 <int>, new_sn_f1524 <int>,
#   new_sn_f2534 <int>, new_sn_f3544 <int>, new_sn_f4554 <int>,
#   new_sn_f5564 <int>, new_sn_f65 <int>, new_ep_m014 <int>,
…
who_tidy %>% print

# A tibble: 76,046 x 8
   country     iso2  iso3   year diagnosis sex   age_group count
   <chr>       <chr> <chr> <int> <fct>     <fct> <ord>     <int>
 1 Afghanistan AF    AFG    1997 sp        m     014           0
 2 Afghanistan AF    AFG    1997 sp        m     1524         10
 3 Afghanistan AF    AFG    1997 sp        m     2534          6
 4 Afghanistan AF    AFG    1997 sp        m     3544          3
 5 Afghanistan AF    AFG    1997 sp        m     4554          5
 6 Afghanistan AF    AFG    1997 sp        m     5564          2
 7 Afghanistan AF    AFG    1997 sp        m     65            0
 8 Afghanistan AF    AFG    1997 sp        f     014           5
 9 Afghanistan AF    AFG    1997 sp        f     1524         38
10 Afghanistan AF    AFG    1997 sp        f     2534         36
# ... with 76,036 more rows
…
# am을 제외한 모든 변수에 대해 long format으로 데이터 변환
mtcar_summ2 <- mtcar_summ1 %>%
  pivot_longer(
    -am,
    names_to = "stat",
    values_to = "value"
  )
mtcar_summ2 %>% print

# A tibble: 28 x 3
   am        stat       value
   <fct>     <chr>      <dbl>
 1 automatic mpg_mean   17.1 
 2 automatic cyl_mean    6.95
 3 automatic disp_mean 290.  
 4 automatic hp_mean   160.  
 5 automatic drat_mean   3.29
 6 automatic wt_mean     3.77
 7 automatic qsec_mean  18.2 
 8 automatic mpg_sd      3.83
 9 automatic cyl_sd      1.54
10 automatic disp_sd   110.  
# ... with 18 more rows
…
